{"componentChunkName":"component---src-pages-index-jsx","path":"/","result":{"data":{"site":{"siteMetadata":{"name":"根号三","bio":"O ever youthful, O ever weeping.","cover":"","SEOTitle":"sqrtthree's blog | 根号三的博客"}},"allMarkdownRemark":{"pageInfo":{"totalCount":22,"pageCount":2,"perPage":14,"hasPreviousPage":false,"hasNextPage":true,"currentPage":1},"nodes":[{"id":"eba4627d-446c-5afb-9171-d2580fa4c428","frontmatter":{"title":"不要害怕 Rebase","tags":["译文","Git"],"cover":null,"date":"2018-03-20"},"excerpt":"原文地址：Don’t Fear The Rebase 原文作者：本文已获原作者 Jared Ready 授权，转载请注明出处。 译者：根号三  Git 的  命令是 Git 用户感到害怕和迷惑的一个常见原因，特别是那些来自可能更集中的版本控制系统的用户。这很正常。Rebase…","fields":{"slug":"/dont-fear-the-rebase/"},"timeToRead":5},{"id":"5db7d0f5-b5c6-5d9c-924f-38cba4838490","frontmatter":{"title":"GoLang 中的随机数","tags":["GoLang"],"cover":null,"date":"2018-03-16"},"excerpt":"随机数我们都知道，就是计算机通过某种算法，“随机”的生成一个数字。很多编程语言都有内置的方法来生成随机数，那么 GoLang…","fields":{"slug":"/random-number-in-golang/"},"timeToRead":4},{"id":"3c938033-b736-5f53-bd60-e7d9031dbe66","frontmatter":{"title":"作为一个开源软件的作者是一种什么样的感受？","tags":["译文"],"cover":null,"date":"2017-03-15"},"excerpt":"原文地址：What it feels like to be an open-source maintainer 原文作者：Nolan Lawson…","fields":{"slug":"/what-it-feels-like-to-be-an-open-source-maintainer/"},"timeToRead":12},{"id":"838f1f35-708b-5810-83a8-a8ec312b8ba3","frontmatter":{"title":"是时候来用 Slush 构建你自己的脚手架了","tags":["gulp","工具"],"cover":null,"date":"2017-03-01"},"excerpt":"Slush 是什么？ 简单的来说，Slush…","fields":{"slug":"/it-is-time-to-build-your-own-scaffolding-with-slush/"},"timeToRead":6},{"id":"23089cc5-84f0-597a-a483-46da9f77a35d","frontmatter":{"title":"一个关于 Styled Components 的五分钟介绍","tags":["译文","CSS","React"],"cover":"https://camo.githubusercontent.com/4cf7254acbf60caa799fadead24a8e35839b84af/68747470733a2f2f63646e2d696d616765732d312e6d656469756d2e636f6d2f6d61782f323030302f312a4449466a69345a6d4a61345f483345706247325841772e706e67","date":"2017-02-10"},"excerpt":"原文地址：A 5-minute Intro to Styled Components 原文作者：Sacha Greif 译文出自：掘金翻译计划 译者：根号三 校对者：Tina92、lovelyCiTY CSS 是一个很神奇的语言，你可以在 1…","fields":{"slug":"/a-5-minute-intro-to-styled-components/"},"timeToRead":5},{"id":"d9abfc23-a419-5f12-905d-3b97636e9cd1","frontmatter":{"title":"通过 CSS 实现六边形效果","tags":["CSS"],"cover":null,"date":"2016-06-27"},"excerpt":"故事说起那是在一个冰冷幽暗的晚上，外面下着淅淅沥沥的小雨，我正在思考一个十分重要的人生问题：这个周末哪里去？是宅在家里写程序好呢，还是宅在家里写博客好呢？还是好呢？这时，桌面右下角很少抖动的 QQ…","fields":{"slug":"/The-hexagon-by-CSS/"},"timeToRead":2},{"id":"a18fe617-a2c4-521a-9004-caa70bb72fff","frontmatter":{"title":"jQuery 3.0 终于发布啦！","tags":["jQuery3.0","译文"],"cover":null,"date":"2016-06-13"},"excerpt":"jQuery 3.0 现在发布啦！这个版本从 2014 年 10 月就已经在开始开发了。我们的目标是创建一个更轻量、更快的 jQuery（带有向后兼容的思想）。我们删除了所有的兼容旧版本 IE 浏览器的解决办法，并在一些有意义的地方利用了一些较为现代的 web APIs。它是…","fields":{"slug":"/jQuery-3-0-Final-Released/"},"timeToRead":8},{"id":"82cb0879-2aca-572c-b33a-eafe7eb5632c","frontmatter":{"title":"前端开发书籍推荐目录","tags":["资源"],"cover":null,"date":"2016-04-26"},"excerpt":"…","fields":{"slug":"/book-recommendations/"},"timeToRead":9},{"id":"b63b388c-6415-5546-b086-9bc25cf902ef","frontmatter":{"title":"在 Chrome 开发者工具中调试 node.js","tags":["译文"],"cover":null,"date":"2016-02-29"},"excerpt":"原文链接 : Debugging Node.js in Chrome DevTools 原文作者 : MATT DESLAURIERS 译文出自 : 掘金翻译计划 译者 : sqrthree (根号三) 校对者: shenxn、CoderBOBO…","fields":{"slug":"/debugging-nodejs-in-chrome-devtools/"},"timeToRead":9},{"id":"a73a61b6-0d19-5eea-8f5e-07680edd9a28","frontmatter":{"title":"GitBook 简明教程","tags":["GitBook","工具"],"cover":null,"date":"2016-02-23"},"excerpt":"Modern book format and toolchain using Git and Markdown 这是 GitBook 项目主页上对 GitBook 的定义。 GitBook 是一个命令行工具。通过它，你能够使用 Git 和 Markdown…","fields":{"slug":"/gitbook/"},"timeToRead":5},{"id":"695c8e9b-1b3f-5614-be77-08eb757fee65","frontmatter":{"title":"聊一聊 JS 中的『隐式类型转换』","tags":["JS"],"cover":null,"date":"2016-01-23"},"excerpt":"…","fields":{"slug":"/implicit-type-conversion/"},"timeToRead":4},{"id":"8ab6abaa-6db4-5640-85c0-efe18270e1ac","frontmatter":{"title":"JavaScript 开发者年度调查报告","tags":["译文"],"cover":null,"date":"2015-12-26"},"excerpt":"原文链接 : JavaScript Developer Survey Results 原文作者 : ponyfoo 译文出自 : 掘金翻译计划 译者 : sqrthree(根号三) 校对者: Zhangdroid 截止目前有超过了 500…","fields":{"slug":"/javascript-developer-survey-results/"},"timeToRead":8},{"id":"2664f398-ebd4-516a-9c6c-ab6864789c79","frontmatter":{"title":"前端代码风格检查套件 FECS","tags":null,"cover":null,"date":"2015-12-25"},"excerpt":"All code in any code-base should look like a single person typed it, no matter how many people contributed. — idiomatic.js…","fields":{"slug":"/fecs/"},"timeToRead":5},{"id":"9a223bef-2bc6-589d-97d1-1f2cddc2e4df","frontmatter":{"title":"jQuery 3.0 以及兼容版的 Alpha 版本发布","tags":["jQuery3.0","译文"],"cover":null,"date":"2015-11-12"},"excerpt":"从我们做出上一个重大的版本发布已经过去很长时间了，所以你理应再得到一个新版本。因此我们非常高兴的宣布  的第一个  版本的发布。 尽管版本号已经到了 3.…","fields":{"slug":"/jQuery3-0-Alpha-Versions-Released/"},"timeToRead":11}]}},"pageContext":{}},"staticQueryHashes":["2251655042"]}