{"componentChunkName":"component---src-pages-index-jsx","path":"/pages/3","result":{"data":{"site":{"siteMetadata":{"name":"根号三","bio":"O ever youthful, O ever weeping.","cover":"","SEOTitle":"sqrtthree's blog | 根号三的博客"}},"allMarkdownRemark":{"pageInfo":{"totalCount":23,"pageCount":3,"perPage":10,"hasPreviousPage":false,"hasNextPage":true,"currentPage":1},"nodes":[{"id":"2a874493-3e50-5dba-8499-11227e7388c4","frontmatter":{"title":"不要害怕 Rebase","tags":["译文","Git"],"cover":null,"date":"2018-03-20"},"excerpt":"原文地址：Don’t Fear The Rebase 原文作者：本文已获原作者 Jared Ready 授权，转载请注明出处。 译者：根号三  Git 的  命令是 Git 用户感到害怕和迷惑的一个常见原因，特别是那些来自可能更集中的版本控制系统的用户。这很正常。Rebase…","fields":{"slug":"/dont-fear-the-rebase/"},"timeToRead":5},{"id":"643c63d1-6c1e-5185-a84a-650782a6ac1a","frontmatter":{"title":"GoLang 中的随机数","tags":["GoLang"],"cover":null,"date":"2018-03-16"},"excerpt":"随机数我们都知道，就是计算机通过某种算法，“随机”的生成一个数字。很多编程语言都有内置的方法来生成随机数，那么 GoLang…","fields":{"slug":"/random-number-in-golang/"},"timeToRead":4},{"id":"fab02b89-0592-532c-83a8-b4783556c888","frontmatter":{"title":"作为一个开源软件的作者是一种什么样的感受？","tags":["译文"],"cover":null,"date":"2017-03-15"},"excerpt":"原文地址：What it feels like to be an open-source maintainer 原文作者：Nolan Lawson…","fields":{"slug":"/what-it-feels-like-to-be-an-open-source-maintainer/"},"timeToRead":12},{"id":"135af74a-fbe8-5f01-bf1f-cf7c000f1526","frontmatter":{"title":"是时候来用 Slush 构建你自己的脚手架了","tags":["gulp","工具"],"cover":null,"date":"2017-03-01"},"excerpt":"Slush 是什么？ 简单的来说，Slush…","fields":{"slug":"/it-is-time-to-build-your-own-scaffolding-with-slush/"},"timeToRead":6},{"id":"55f62b56-8e45-5b48-83ea-a0c8b342185e","frontmatter":{"title":"一个关于 Styled Components 的五分钟介绍","tags":["译文","CSS","React"],"cover":"https://camo.githubusercontent.com/4cf7254acbf60caa799fadead24a8e35839b84af/68747470733a2f2f63646e2d696d616765732d312e6d656469756d2e636f6d2f6d61782f323030302f312a4449466a69345a6d4a61345f483345706247325841772e706e67","date":"2017-02-10"},"excerpt":"原文地址：A 5-minute Intro to Styled Components 原文作者：Sacha Greif 译文出自：掘金翻译计划 译者：根号三 校对者：Tina92、lovelyCiTY CSS 是一个很神奇的语言，你可以在 1…","fields":{"slug":"/a-5-minute-intro-to-styled-components/"},"timeToRead":5},{"id":"8b32ba13-9240-5dc8-a4bf-8b3488310c2f","frontmatter":{"title":"通过 CSS 实现六边形效果","tags":["CSS"],"cover":null,"date":"2016-06-27"},"excerpt":"故事说起那是在一个冰冷幽暗的晚上，外面下着淅淅沥沥的小雨，我正在思考一个十分重要的人生问题：这个周末哪里去？是宅在家里写程序好呢，还是宅在家里写博客好呢？还是好呢？这时，桌面右下角很少抖动的 QQ…","fields":{"slug":"/The-hexagon-by-CSS/"},"timeToRead":2},{"id":"d1ee0f96-b849-58c6-9aac-297e38ad9498","frontmatter":{"title":"jQuery 3.0 终于发布啦！","tags":["jQuery3.0","译文"],"cover":null,"date":"2016-06-13"},"excerpt":"jQuery 3.0 现在发布啦！这个版本从 2014 年 10 月就已经在开始开发了。我们的目标是创建一个更轻量、更快的 jQuery（带有向后兼容的思想）。我们删除了所有的兼容旧版本 IE 浏览器的解决办法，并在一些有意义的地方利用了一些较为现代的 web APIs。它是…","fields":{"slug":"/jQuery-3-0-Final-Released/"},"timeToRead":8},{"id":"43daa127-7a7a-5a4b-9805-9b45ad679b8b","frontmatter":{"title":"前端开发书籍推荐目录","tags":["资源"],"cover":null,"date":"2016-04-26"},"excerpt":"…","fields":{"slug":"/book-recommendations/"},"timeToRead":9},{"id":"0ce908a7-cacb-5feb-9b6c-eaaa75acf783","frontmatter":{"title":"在 Chrome 开发者工具中调试 node.js","tags":["译文"],"cover":null,"date":"2016-02-29"},"excerpt":"原文链接 : Debugging Node.js in Chrome DevTools 原文作者 : MATT DESLAURIERS 译文出自 : 掘金翻译计划 译者 : sqrthree (根号三) 校对者: shenxn、CoderBOBO…","fields":{"slug":"/debugging-nodejs-in-chrome-devtools/"},"timeToRead":9},{"id":"fe62ea04-24a1-553f-a1b2-4bab6cdf0e5c","frontmatter":{"title":"GitBook 简明教程","tags":["GitBook","工具"],"cover":null,"date":"2016-02-23"},"excerpt":"Modern book format and toolchain using Git and Markdown 这是 GitBook 项目主页上对 GitBook 的定义。 GitBook 是一个命令行工具。通过它，你能够使用 Git 和 Markdown…","fields":{"slug":"/gitbook/"},"timeToRead":5}]}},"pageContext":{"pageCount":3,"perPage":10,"currentPage":3,"hasPreviousPage":true,"hasNextPage":false,"nodes":[{"id":"a0716fa1-b68f-553c-8387-90f4337c1979","frontmatter":{"title":"前端开发模板引擎 -- Jade之神奇的 mixins 和模板继承","tags":["jade"],"cover":null,"date":"2015-08-20"},"excerpt":"…","fields":{"slug":"/jade-04/"},"timeToRead":5},{"id":"190c8862-b2f2-5680-a69d-fe32be9ec474","frontmatter":{"title":"前端开发模板引擎 -- Jade之标签的基本写法","tags":["jade"],"cover":null,"date":"2015-08-20"},"excerpt":"1、文档声明 我们在开始写一个  页面的时候，首先要写上  文档声明的，现在通常情况下我们都是采用  的文档声明方式，那么在  里面我们应该怎么写呢？ 在  里面编写文档声明有…","fields":{"slug":"/jade-02/"},"timeToRead":6},{"id":"9396032e-22f7-5282-9e29-de5216ceb497","frontmatter":{"title":"Hello World","tags":null,"cover":null,"date":"2015-06-27"},"excerpt":"About Me I'm a Front-End developer, now living in ZhengZhou, China. I'm ❤ programming & UI design. Skills HTML5 & CSS3 JavaScript Node.js Go…","fields":{"slug":"/hello-world/"},"timeToRead":1}]}},"staticQueryHashes":["1306129578"]}